<mxfile host="app.diagrams.net" modified="2023-07-28T16:47:12.750Z" agent="Mozilla/5.0 (X11; Linux x86_64; rv:109.0) Gecko/20100101 Firefox/115.0" version="21.6.6" etag="4trlM37nvZEfHtDJeh86" type="gitlab">
  <diagram name="Page-1" id="KAoe5eiHBnZs4BXLMgWB">
    <mxGraphModel>
      <root>
        <mxCell id="0" />
        <mxCell id="1" parent="0" />
      </root>
    </mxGraphModel>
  </diagram>
</mxfile>
